Cross/simulation/qsim/Cross.msim.vcd
$comment
	File created using the following command:
		vcd file Cross.msim.vcd -direction
$end
$date
	Tue Jul 10 20:39:24 2018
$end
$version
	ModelSim Version 10.5b
$end
$timescale
	1ps
$end

$scope module Cross_vlg_vec_tst $end
$var reg 1 ! CLK $end
$var wire 1 " A $end
$var wire 1 # B $end

$scope module i1 $end
$var wire 1 $ gnd $end
$var wire 1 % vcc $end
$var wire 1 & unknown $end
$var tri1 1 ' devclrn $end
$var tri1 1 ( devpor $end
$var tri1 1 ) devoe $end
$var wire 1 * A~output_o $end
$var wire 1 + B~output_o $end
$var wire 1 , CLK~input_o $end
$var wire 1 - CLK~inputclkctrl_outclk $end
$var wire 1 . inst15|48~0_combout $end
$var wire 1 / inst15|48~q $end
$var wire 1 0 inst15|49~0_combout $end
$var wire 1 1 inst15|49~q $end
$var wire 1 2 inst15|50~0_combout $end
$var wire 1 3 inst15|50~q $end
$var wire 1 4 inst15|51~0_combout $end
$var wire 1 5 inst15|51~q $end
$var wire 1 6 inst8~0_combout $end
$var wire 1 7 inst17|48~0_combout $end
$var wire 1 8 inst17|48~feeder_combout $end
$var wire 1 9 inst17|48~q $end
$var wire 1 : inst17|49~0_combout $end
$var wire 1 ; inst17|49~q $end
$var wire 1 < inst17|50~0_combout $end
$var wire 1 = inst17|50~q $end
$var wire 1 > inst17|51~0_combout $end
$var wire 1 ? inst17|51~q $end
$var wire 1 @ inst2~combout $end
$var wire 1 A inst16|48~0_combout $end
$var wire 1 B inst16|48~q $end
$var wire 1 C inst16|51~0_combout $end
$var wire 1 D inst16|51~q $end
$var wire 1 E inst16|49~0_combout $end
$var wire 1 F inst16|49~q $end
$var wire 1 G inst16|50~0_combout $end
$var wire 1 H inst16|50~q $end
$var wire 1 I inst9~1_combout $end
$var wire 1 J inst9~0_combout $end
$var wire 1 K inst1~combout $end
$var wire 1 L inst|48~0_combout $end
$var wire 1 M inst|48~q $end
$var wire 1 N inst|50~0_combout $end
$var wire 1 O inst|50~q $end
$var wire 1 P inst|49~0_combout $end
$var wire 1 Q inst|49~q $end
$var wire 1 R inst|51~0_combout $end
$var wire 1 S inst|51~q $end
$var wire 1 T inst8~1_combout $end
$var wire 1 U inst10~combout $end
$var wire 1 V inst10~clkctrl_outclk $end
$var wire 1 W inst19|sub|9~0_combout $end
$var wire 1 X inst19|sub|9~q $end
$var wire 1 Y inst19|sub|86~combout $end
$var wire 1 Z inst19|sub|87~q $end
$upscope $end
$upscope $end
$enddefinitions $end
#0
$dumpvars
0!
0"
0#
0$
1%
x&
1'
1(
1)
0*
0+
0,
0-
1.
0/
00
01
02
03
14
05
16
17
18
09
0:
0;
0<
0=
1>
0?
0@
1A
0B
1C
0D
0E
0F
0G
0H
1I
1J
0K
1L
0M
0N
0O
0P
0Q
1R
0S
1T
1U
1V
1W
0X
0Y
0Z
$end
#10000
1!
1,
1-
1?
15
19
1/
0J
06
07
0.
1@
1K
0U
0V
08
1D
1B
1S
1M
0I
0T
0A
0L
#20000
0!
0,
0-
#30000
1!
1,
1-
09
0/
17
1.
0@
0>
1<
1:
0K
04
12
10
18
#40000
0!
0,
0-
#50000
1!
1,
1-
0?
1=
1;
05
13
11
19
1/
07
0.
08
#60000
0!
0,
0-
#70000
1!
1,
1-
09
0/
17
1.
0:
00
18
#80000
0!
0,
0-
#90000
1!
1,
1-
0;
01
19
1/
07
0.
08
#100000
0!
0,
0-
#110000
1!
1,
1-
09
0/
17
1.
0<
1:
02
10
18
#120000
0!
0,
0-
#130000
1!
1,
1-
0=
1;
03
11
19
1/
07
0.
08
#140000
0!
0,
0-
#150000
1!
1,
1-
09
0/
17
1.
0:
00
18
#160000
0!
0,
0-
#170000
1!
1,
1-
0;
01
19
1/
07
0.
08
#180000
0!
0,
0-
#190000
1!
1,
1-
09
0/
1J
17
16
1.
1>
14
18
#200000
0!
0,
0-
#210000
1!
1,
1-
1?
15
19
1/
0J
06
07
0.
1@
1K
08
0B
0M
1G
1E
0C
1A
0R
1P
1N
1L
#220000
0!
0,
0-
#230000
1!
1,
1-
09
0/
17
1.
0@
0>
1<
1:
0K
04
12
10
18
#240000
0!
0,
0-
#250000
1!
1,
1-
0?
1=
1;
05
13
11
19
1/
07
0.
08
#260000
0!
0,
0-
#270000
1!
1,
1-
09
0/
17
1.
0:
00
18
#280000
0!
0,
0-
#290000
1!
1,
1-
0;
01
19
1/
07
0.
08
#300000
0!
0,
0-
#310000
1!
1,
1-
09
0/
17
1.
0<
1:
02
10
18
#320000
0!
0,
0-
#330000
1!
1,
1-
0=
1;
03
11
19
1/
07
0.
08
#340000
0!
0,
0-
#350000
1!
1,
1-
09
0/
17
1.
0:
00
18
#360000
0!
0,
0-
#370000
1!
1,
1-
0;
01
19
1/
07
0.
08
#380000
0!
0,
0-
#390000
1!
1,
1-
09
0/
1J
17
16
1.
1>
14
18
#400000
0!
0,
0-
#410000
1!
1,
1-
1?
15
19
1/
0J
06
07
0.
1@
1K
08
1H
1F
0D
1B
0S
1Q
1O
1M
0A
0L
#420000
0!
0,
0-
#430000
1!
1,
1-
09
0/
17
1.
0@
0>
1<
1:
0K
04
12
10
18
#440000
0!
0,
0-
#450000
1!
1,
1-
0?
1=
1;
05
13
11
19
1/
07
0.
08
#460000
0!
0,
0-
#470000
1!
1,
1-
09
0/
17
1.
0:
00
18
#480000
0!
0,
0-
#490000
1!
1,
1-
0;
01
19
1/
07
0.
08
#500000
0!
0,
0-
#510000
1!
1,
1-
09
0/
17
1.
0<
1:
02
10
18
#520000
0!
0,
0-
#530000
1!
1,
1-
0=
1;
03
11
19
1/
07
0.
08
#540000
0!
0,
0-
#550000
1!
1,
1-
09
0/
17
1.
0:
00
18
#560000
0!
0,
0-
#570000
1!
1,
1-
0;
01
19
1/
07
0.
08
#580000
0!
0,
0-
#590000
1!
1,
1-
09
0/
1J
17
16
1.
1>
14
18
#600000
0!
0,
0-
#610000
1!
1,
1-
1?
15
19
1/
0J
06
07
0.
1@
1K
08
0B
0M
0E
1A
0P
1L
#620000
0!
0,
0-
#630000
1!
1,
1-
09
0/
17
1.
0@
0>
1<
1:
0K
04
12
10
18
#640000
0!
0,
0-
#650000
1!
1,
1-
0?
1=
1;
05
13
11
19
1/
07
0.
08
#660000
0!
0,
0-
#670000
1!
1,
1-
09
0/
17
1.
0:
00
18
#680000
0!
0,
0-
#690000
1!
1,
1-
0;
01
19
1/
07
0.
08
#700000
0!
0,
0-
#710000
1!
1,
1-
09
0/
17
1.
0<
1:
02
10
18
#720000
0!
0,
0-
#730000
1!
1,
1-
0=
1;
03
11
19
1/
07
0.
08
#740000
0!
0,
0-
#750000
1!
1,
1-
09
0/
17
1.
0:
00
18
#760000
0!
0,
0-
#770000
1!
1,
1-
0;
01
19
1/
07
0.
08
#780000
0!
0,
0-
#790000
1!
1,
1-
09
0/
1J
17
16
1.
1>
14
18
#800000
0!
0,
0-
#810000
1!
1,
1-
1?
15
19
1/
0J
06
07
0.
1@
1K
08
0F
1B
0Q
1M
0A
0L
#820000
0!
0,
0-
#830000
1!
1,
1-
09
0/
17
1.
0@
0>
1<
1:
0K
04
12
10
18
#840000
0!
0,
0-
#850000
1!
1,
1-
0?
1=
1;
05
13
11
19
1/
07
0.
08
#860000
0!
0,
0-
#870000
1!
1,
1-
09
0/
17
1.
0:
00
18
#880000
0!
0,
0-
#890000
1!
1,
1-
0;
01
19
1/
07
0.
08
#900000
0!
0,
0-
#910000
1!
1,
1-
09
0/
17
1.
0<
1:
02
10
18
#920000
0!
0,
0-
#930000
1!
1,
1-
0=
1;
03
11
19
1/
07
0.
08
#940000
0!
0,
0-
#950000
1!
1,
1-
09
0/
17
1.
0:
00
18
#960000
0!
0,
0-
#970000
1!
1,
1-
0;
01
19
1/
07
0.
08
#980000
0!
0,
0-
#990000
1!
1,
1-
09
0/
1J
17
16
1.
1>
14
18
