easy/simulation/qsim/easy.msim.vcd
$comment
	File created using the following command:
		vcd file easy.msim.vcd -direction
$end
$date
	Thu Jul 12 16:16:50 2018
$end
$version
	ModelSim Version 10.5b
$end
$timescale
	1ps
$end

$scope module si_vlg_vec_tst $end
$var reg 1 ! CLK $end
$var wire 1 " a $end
$var wire 1 # b $end
$var wire 1 $ c $end
$var wire 1 % d $end
$var wire 1 & E $end
$var wire 1 ' F $end
$var wire 1 ( G $end
$var wire 1 ) G1 $end
$var wire 1 * G2 $end
$var wire 1 + H $end
$var wire 1 , pin_name1 $end
$var wire 1 - R1 $end
$var wire 1 . R2 $end
$var wire 1 / Y1 $end
$var wire 1 0 Y2 $end

$scope module i1 $end
$var wire 1 1 gnd $end
$var wire 1 2 vcc $end
$var wire 1 3 unknown $end
$var tri1 1 4 devclrn $end
$var tri1 1 5 devpor $end
$var tri1 1 6 devoe $end
$var wire 1 7 E~output_o $end
$var wire 1 8 F~output_o $end
$var wire 1 9 G~output_o $end
$var wire 1 : H~output_o $end
$var wire 1 ; pin_name1~output_o $end
$var wire 1 < G1~output_o $end
$var wire 1 = Y1~output_o $end
$var wire 1 > R1~output_o $end
$var wire 1 ? G2~output_o $end
$var wire 1 @ R2~output_o $end
$var wire 1 A Y2~output_o $end
$var wire 1 B a~output_o $end
$var wire 1 C b~output_o $end
$var wire 1 D c~output_o $end
$var wire 1 E d~output_o $end
$var wire 1 F CLK~input_o $end
$var wire 1 G inst2|48~0_combout $end
$var wire 1 H inst2|48~feeder_combout $end
$var wire 1 I inst|48~0_combout $end
$var wire 1 J inst|48~q $end
$var wire 1 K inst2|49~0_combout $end
$var wire 1 L inst2|49~q $end
$var wire 1 M inst2|50~0_combout $end
$var wire 1 N inst2|50~q $end
$var wire 1 O inst2|51~0_combout $end
$var wire 1 P inst2|51~q $end
$var wire 1 Q inst6~0_combout $end
$var wire 1 R inst2|48~q $end
$var wire 1 S inst5~combout $end
$var wire 1 T inst|50~0_combout $end
$var wire 1 U inst|50~q $end
$var wire 1 V inst|49~0_combout $end
$var wire 1 W inst|49~q $end
$var wire 1 X inst|51~0_combout $end
$var wire 1 Y inst|51~q $end
$var wire 1 Z inst22~0_combout $end
$var wire 1 [ inst22~1_combout $end
$var wire 1 \ inst22~combout $end
$var wire 1 ] inst22~clkctrl_outclk $end
$var wire 1 ^ inst25|sub|9~0_combout $end
$var wire 1 _ inst25|sub|9~q $end
$var wire 1 ` inst25|sub|86~combout $end
$var wire 1 a inst25|sub|87~q $end
$var wire 1 b inst23~combout $end
$var wire 1 c inst28~0_combout $end
$var wire 1 d inst28~1_combout $end
$var wire 1 e inst28~2_combout $end
$upscope $end
$upscope $end
$enddefinitions $end
#0
$dumpvars
0!
0"
0#
0$
0%
0&
1'
1(
1)
0*
1+
0,
0-
1.
0/
00
01
12
x3
14
15
16
07
18
19
1:
0;
1<
0=
0>
0?
1@
0A
0B
0C
0D
0E
0F
1G
1H
1I
0J
0K
0L
0M
0N
1O
0P
0Q
0R
0S
0T
0U
0V
0W
0X
0Y
1Z
0[
0\
0]
1^
0_
0`
0a
0b
0c
0d
0e
$end
#5000
1!
1F
1R
1P
1B
1E
0Z
0G
1%
1"
1S
0H
1J
0:
0+
1V
0I
#10000
0!
0F
#15000
1!
1F
0R
0E
1G
0%
0S
0O
1M
1K
1H
#20000
0!
0F
#25000
1!
1F
1R
0P
1N
1L
1D
1C
0B
1E
1Z
0G
1%
0"
1#
1$
0H
#30000
0!
0F
#35000
1!
1F
0R
0E
0Z
1G
0%
0K
1H
#40000
0!
0F
#45000
1!
1F
1R
0L
0D
1E
1Z
0G
1%
0$
0H
#50000
0!
0F
#55000
1!
1F
0R
0E
0Z
1G
0%
0M
1K
1H
#60000
0!
0F
#65000
1!
1F
1R
0N
1L
1D
0C
1E
0G
1%
0#
1$
0H
#70000
0!
0F
#75000
1!
1F
0R
0E
1G
0%
0K
1H
#80000
0!
0F
#85000
1!
1F
1R
0L
0D
1E
0G
1%
0$
0H
#90000
0!
0F
#95000
1!
1F
0R
0E
1G
0%
1O
1H
#100000
0!
0F
#105000
1!
1F
1R
1P
1B
1E
0G
1%
1"
1S
0H
1W
0J
1:
09
0(
1+
1I
#110000
0!
0F
#115000
1!
1F
0R
0E
1G
0%
0S
0O
1M
1K
1H
#120000
0!
0F
#125000
1!
1F
1R
0P
1N
1L
1D
1C
0B
1E
0G
1%
0"
1#
1$
0H
#130000
0!
0F
#135000
1!
1F
0R
0E
1G
0%
0K
1H
#140000
0!
0F
#145000
1!
1F
1R
0L
0D
1E
0G
1%
0$
0H
#150000
0!
0F
#155000
1!
1F
0R
0E
1G
0%
0M
1K
1H
#160000
0!
0F
#165000
1!
1F
1R
0N
1L
1D
0C
1E
0G
1%
0#
1$
0H
#170000
0!
0F
#175000
1!
1F
0R
0E
1G
0%
0K
1H
#180000
0!
0F
#185000
1!
1F
1R
0L
0D
1E
0G
1%
0$
0H
#190000
0!
0F
#195000
1!
1F
0R
0E
1G
0%
1O
1H
#200000
0!
0F
#205000
1!
1F
1R
1P
1B
1E
0G
1%
1"
1S
0H
1J
0:
0+
0V
1T
0I
#210000
0!
0F
#215000
1!
1F
0R
0E
1Z
1G
0%
0S
0O
1M
1K
1H
#220000
0!
0F
#225000
1!
1F
1R
0P
1N
1L
1D
1C
0B
1E
0G
1%
0"
1#
1$
0H
#230000
0!
0F
#235000
1!
1F
0R
0E
0Z
1G
0%
0K
1H
#240000
0!
0F
#245000
1!
1F
1R
0L
0D
1E
1Z
0G
1%
0$
0H
#250000
0!
0F
#255000
1!
1F
0R
0E
0Z
1G
0%
0M
1K
1H
#260000
0!
0F
#265000
1!
1F
1R
0N
1L
1D
0C
1E
0G
1%
0#
1$
0H
#270000
0!
0F
#275000
1!
1F
0R
0E
1Z
1G
0%
0K
1H
#280000
0!
0F
#285000
1!
1F
1R
0L
0D
1E
0Z
0G
1%
0$
0H
#290000
0!
0F
#295000
1!
1F
0R
0E
1Z
1G
0%
1O
1H
#300000
0!
0F
#305000
1!
1F
1R
1P
1B
1E
0Z
0G
1%
1"
1S
0H
0W
1U
0J
1:
08
19
1(
0'
1+
1I
#310000
0!
0F
#315000
1!
1F
0R
0E
1Z
1G
0%
0S
0O
1M
1K
1H
#320000
0!
0F
#325000
1!
1F
1R
0P
1N
1L
1D
1C
0B
1E
0Z
0G
1%
0"
1#
1$
0H
#330000
0!
0F
#335000
1!
1F
0R
0E
1G
0%
0K
1H
#340000
0!
0F
#345000
1!
1F
1R
0L
0D
1E
0G
1[
1%
0$
0H
#350000
0!
0F
#355000
1!
1F
0R
0E
1G
0%
0M
1K
1H
#360000
0!
0F
#365000
1!
1F
1R
0N
1L
1D
0C
1E
0G
0[
1%
0#
1$
0H
#370000
0!
0F
#375000
1!
1F
0R
0E
1Z
1G
0%
0K
1H
#380000
0!
0F
#385000
1!
1F
1R
0L
0D
1E
0Z
0G
1[
1%
0$
0H
#390000
0!
0F
#395000
1!
1F
0R
0E
1Z
1G
0%
1O
1\
1H
1]
1;
1,
1_
1b
1c
1`
0^
1=
0<
0)
1/
#400000
0!
0F
#405000
1!
1F
1R
1P
1B
1E
0Z
0G
0[
1%
1"
1S
0\
0H
0]
0;
0,
1J
0:
0+
1V
0I
#410000
0!
0F
#415000
1!
1F
0R
0E
1G
0%
0S
0O
1M
1K
1H
#420000
0!
0F
#425000
1!
1F
1R
0P
1N
1L
1D
1C
0B
1E
1Z
0G
1%
0"
1#
1$
0H
#430000
0!
0F
#435000
1!
1F
0R
0E
0Z
1G
0%
0K
1H
#440000
0!
0F
#445000
1!
1F
1R
0L
0D
1E
1Z
0G
1[
1%
0$
1\
0H
1]
1;
1,
0_
1a
0@
1>
1-
0.
1d
0c
1^
0=
1?
1*
0/
#450000
0!
0F
#455000
1!
1F
0R
0E
0Z
1G
0%
0M
1K
0\
1H
0]
0;
0,
#460000
0!
0F
#465000
1!
1F
1R
0N
1L
1D
0C
1E
0G
0[
1%
0#
1$
0H
#470000
0!
0F
#475000
1!
1F
0R
0E
1G
0%
0K
1H
#480000
0!
0F
#485000
1!
1F
1R
0L
0D
1E
0G
1[
1%
0$
0H
#490000
0!
0F
#495000
1!
1F
0R
0E
1G
0%
1O
1H
#500000
0!
0F
#505000
1!
1F
1R
1P
1B
1E
0G
0[
1%
1"
1S
0H
1W
0J
1:
09
0(
1+
1I
#510000
0!
0F
#515000
1!
1F
0R
0E
1G
0%
0S
0O
1M
1K
1H
#520000
0!
0F
#525000
1!
1F
1R
0P
1N
1L
1D
1C
0B
1E
0G
1%
0"
1#
1$
0H
#530000
0!
0F
#535000
1!
1F
0R
0E
1G
0%
0K
1H
#540000
0!
0F
#545000
1!
1F
1R
0L
0D
1E
0G
1[
1%
0$
0H
#550000
0!
0F
#555000
1!
1F
0R
0E
1G
0%
0M
1K
1H
#560000
0!
0F
#565000
1!
1F
1R
0N
1L
1D
0C
1E
0G
0[
1%
0#
1$
0H
#570000
0!
0F
#575000
1!
1F
0R
0E
1G
0%
0K
1H
#580000
0!
0F
#585000
1!
1F
1R
0L
0D
1E
0G
1[
1%
0$
0H
#590000
0!
0F
#595000
1!
1F
0R
0E
1G
0%
1O
1H
#600000
0!
0F
#605000
1!
1F
1R
1P
1B
1E
0G
0[
1%
1"
1S
0H
1J
0:
0+
1X
0I
#610000
0!
0F
#615000
1!
1F
0R
0E
1Z
1G
0%
0S
0O
1M
1K
1H
#620000
0!
0F
#625000
1!
1F
1R
0P
1N
1L
1D
1C
0B
1E
0G
1%
0"
1#
1$
0H
#630000
0!
0F
#635000
1!
1F
0R
0E
0Z
1G
0%
0K
1H
#640000
0!
0F
#645000
1!
1F
1R
0L
0D
1E
1Z
0G
1[
1%
0$
1\
0H
1]
1;
1,
1_
1e
0d
0`
0^
0?
1A
10
0*
#650000
0!
0F
#655000
1!
1F
0R
0E
0Z
1G
0%
0M
1K
0\
1H
0]
0;
0,
#660000
0!
0F
#665000
1!
1F
1R
0N
1L
1D
0C
1E
0G
0[
1%
0#
1$
0H
#670000
0!
0F
#675000
1!
1F
0R
0E
1Z
1G
0%
0K
1H
#680000
0!
0F
#685000
1!
1F
1R
0L
0D
1E
0Z
0G
1[
1%
0$
0H
#690000
0!
0F
#695000
1!
1F
0R
0E
1Z
1G
0%
1O
1\
1H
1]
1;
1,
0_
0a
1@
0>
0b
0-
1.
0e
1^
0A
1<
1)
00
#700000
0!
0F
#705000
1!
1F
1R
1P
1B
1E
0Z
0G
0[
1%
1"
1S
0\
0H
0]
0;
0,
0J
1Y
17
1:
1Q
1+
1&
1I
0U
0W
0P
0R
0Y
07
0E
0B
19
18
1Z
0Q
1G
1'
1(
0"
0%
0&
0X
0V
0T
0S
1H
#710000
0!
0F
#715000
1!
1F
1R
1P
1B
1E
0Z
0G
1%
1"
1S
0H
1J
0:
0+
1V
0I
#720000
0!
0F
#725000
1!
1F
0R
0E
1G
0%
0S
0O
1M
1K
1H
#730000
0!
0F
#735000
1!
1F
1R
0P
1N
1L
1D
1C
0B
1E
1Z
0G
1%
0"
1#
1$
0H
#740000
0!
0F
#745000
1!
1F
0R
0E
0Z
1G
0%
0K
1H
#750000
0!
0F
#755000
1!
1F
1R
0L
0D
1E
1Z
0G
1%
0$
0H
#760000
0!
0F
#765000
1!
1F
0R
0E
0Z
1G
0%
0M
1K
1H
#770000
0!
0F
#775000
1!
1F
1R
0N
1L
1D
0C
1E
0G
1%
0#
1$
0H
#780000
0!
0F
#785000
1!
1F
0R
0E
1G
0%
0K
1H
#790000
0!
0F
#795000
1!
1F
1R
0L
0D
1E
0G
1%
0$
0H
#800000
0!
0F
#805000
1!
1F
0R
0E
1G
0%
1O
1H
#810000
0!
0F
#815000
1!
1F
1R
1P
1B
1E
0G
1%
1"
1S
0H
1W
0J
1:
09
0(
1+
1I
#820000
0!
0F
#825000
1!
1F
0R
0E
1G
0%
0S
0O
1M
1K
1H
#830000
0!
0F
#835000
1!
1F
1R
0P
1N
1L
1D
1C
0B
1E
0G
1%
0"
1#
1$
0H
#840000
0!
0F
#845000
1!
1F
0R
0E
1G
0%
0K
1H
#850000
0!
0F
#855000
1!
1F
1R
0L
0D
1E
0G
1%
0$
0H
#860000
0!
0F
#865000
1!
1F
0R
0E
1G
0%
0M
1K
1H
#870000
0!
0F
#875000
1!
1F
1R
0N
1L
1D
0C
1E
0G
1%
0#
1$
0H
#880000
0!
0F
#885000
1!
1F
0R
0E
1G
0%
0K
1H
#890000
0!
0F
#895000
1!
1F
1R
0L
0D
1E
0G
1%
0$
0H
#900000
0!
0F
#905000
1!
1F
0R
0E
1G
0%
1O
1H
#910000
0!
0F
#915000
1!
1F
1R
1P
1B
1E
0G
1%
1"
1S
0H
1J
0:
0+
0V
1T
0I
#920000
0!
0F
#925000
1!
1F
0R
0E
1Z
1G
0%
0S
0O
1M
1K
1H
#930000
0!
0F
#935000
1!
1F
1R
0P
1N
1L
1D
1C
0B
1E
0G
1%
0"
1#
1$
0H
#940000
0!
0F
#945000
1!
1F
0R
0E
0Z
1G
0%
0K
1H
#950000
0!
0F
#955000
1!
1F
1R
0L
0D
1E
1Z
0G
1%
0$
0H
#960000
0!
0F
#965000
1!
1F
0R
0E
0Z
1G
0%
0M
1K
1H
#970000
0!
0F
#975000
1!
1F
1R
0N
1L
1D
0C
1E
0G
1%
0#
1$
0H
#980000
0!
0F
#985000
1!
1F
0R
0E
1Z
1G
0%
0K
1H
#990000
0!
0F
#995000
1!
1F
1R
0L
0D
1E
0Z
0G
1%
0$
0H
